Suite/Test/Step Name,Browser,Description,Tag,Start time,End time,Duration,Status
Regression Login,,,,2023-07-04 14:37:11,2023-07-04 14:40:03,2m - 51.747s,PASSED
,,,,,,,
Test Cases/Mobile/Login blank password,,,,2023-07-04 14:37:11,2023-07-04 14:37:46,34.227s,PASSED
"startApplication(""D:\GALANG\Android-MyDemoAppRN.1.2.0.build-231.apk"", true)",,,,2023-07-04 14:37:12,2023-07-04 14:37:32,20.480s,PASSED
"tap(findTestObject(""Object Repository/HomePage/btnHamburgerMenu""), 0)",,,,2023-07-04 14:37:32,2023-07-04 14:37:34,1.168s,PASSED
"tap(findTestObject(""Object Repository/HomePage/btnMenuLogin""), 0)",,,,2023-07-04 14:37:34,2023-07-04 14:37:36,2.352s,PASSED
"tap(findTestObject(""Object Repository/LoginPage/formUsername""), 0)",,,,2023-07-04 14:37:36,2023-07-04 14:37:38,1.655s,PASSED
"sendKeys(findTestObject(""LoginPage/formUsername""), ""bob@example.com"")",,,,2023-07-04 14:37:38,2023-07-04 14:37:39,1.030s,PASSED
hideKeyboard(),,,,2023-07-04 14:37:39,2023-07-04 14:37:40,0.911s,PASSED
"tap(findTestObject(""Object Repository/LoginPage/formPassword""), 0)",,,,2023-07-04 14:37:40,2023-07-04 14:37:40,0.562s,PASSED
"sendKeys(findTestObject(""LoginPage/formPassword""), """")",,,,2023-07-04 14:37:40,2023-07-04 14:37:41,0.919s,PASSED
hideKeyboard(),,,,2023-07-04 14:37:41,2023-07-04 14:37:43,1.954s,PASSED
"tap(findTestObject(""Object Repository/LoginPage/btnLogin""), 0)",,,,2023-07-04 14:37:43,2023-07-04 14:37:44,0.682s,PASSED
"verifyElementExist(findTestObject(""LoginPage/textErrorPasswordRequired""), 0)",,,,2023-07-04 14:37:44,2023-07-04 14:37:45,0.859s,PASSED
"verifyElementText(findTestObject(""LoginPage/textErrorPasswordRequired""), ""Password is required"")",,,,2023-07-04 14:37:45,2023-07-04 14:37:45,0.332s,PASSED
closeApplication(),,,,2023-07-04 14:37:45,2023-07-04 14:37:46,0.844s,PASSED
,,,,,,,
Test Cases/Mobile/Login blank username,,,,2023-07-04 14:37:46,2023-07-04 14:38:19,33.773s,PASSED
"startApplication(""D:\GALANG\Android-MyDemoAppRN.1.2.0.build-231.apk"", true)",,,,2023-07-04 14:37:46,2023-07-04 14:38:05,19.431s,PASSED
"tap(findTestObject(""Object Repository/HomePage/btnHamburgerMenu""), 0)",,,,2023-07-04 14:38:05,2023-07-04 14:38:07,1.290s,PASSED
"tap(findTestObject(""Object Repository/HomePage/btnMenuLogin""), 0)",,,,2023-07-04 14:38:07,2023-07-04 14:38:09,2.217s,PASSED
"tap(findTestObject(""Object Repository/LoginPage/formUsername""), 0)",,,,2023-07-04 14:38:09,2023-07-04 14:38:11,1.681s,PASSED
"sendKeys(findTestObject(""LoginPage/formUsername""), """")",,,,2023-07-04 14:38:11,2023-07-04 14:38:12,1.132s,PASSED
hideKeyboard(),,,,2023-07-04 14:38:12,2023-07-04 14:38:13,0.819s,PASSED
"tap(findTestObject(""Object Repository/LoginPage/formPassword""), 0)",,,,2023-07-04 14:38:13,2023-07-04 14:38:13,0.598s,PASSED
"sendKeys(findTestObject(""LoginPage/formPassword""), ""122121"")",,,,2023-07-04 14:38:13,2023-07-04 14:38:14,0.914s,PASSED
hideKeyboard(),,,,2023-07-04 14:38:14,2023-07-04 14:38:16,2.110s,PASSED
"tap(findTestObject(""Object Repository/LoginPage/btnLogin""), 0)",,,,2023-07-04 14:38:16,2023-07-04 14:38:17,0.634s,PASSED
"verifyElementExist(findTestObject(""LoginPage/textErrorUsernameRequired""), 0)",,,,2023-07-04 14:38:17,2023-07-04 14:38:18,0.898s,PASSED
"verifyElementText(findTestObject(""LoginPage/textErrorUsernameRequired""), ""Username is required"")",,,,2023-07-04 14:38:18,2023-07-04 14:38:18,0.338s,PASSED
closeApplication(),,,,2023-07-04 14:38:18,2023-07-04 14:38:19,1.358s,PASSED
,,,,,,,
Test Cases/Mobile/Login invalid credential,,,,2023-07-04 14:38:19,2023-07-04 14:38:52,32.422s,PASSED
"startApplication(""D:\GALANG\Android-MyDemoAppRN.1.2.0.build-231.apk"", true)",,,,2023-07-04 14:38:20,2023-07-04 14:38:39,18.991s,PASSED
"tap(findTestObject(""Object Repository/HomePage/btnHamburgerMenu""), 0)",,,,2023-07-04 14:38:39,2023-07-04 14:38:40,1.006s,PASSED
"tap(findTestObject(""Object Repository/HomePage/btnMenuLogin""), 0)",,,,2023-07-04 14:38:40,2023-07-04 14:38:42,2.198s,PASSED
"tap(findTestObject(""Object Repository/LoginPage/formUsername""), 0)",,,,2023-07-04 14:38:42,2023-07-04 14:38:44,1.744s,PASSED
"sendKeys(findTestObject(""LoginPage/formUsername""), ""bob@exampl.com"")",,,,2023-07-04 14:38:44,2023-07-04 14:38:45,1.173s,PASSED
hideKeyboard(),,,,2023-07-04 14:38:45,2023-07-04 14:38:46,0.844s,PASSED
"tap(findTestObject(""Object Repository/LoginPage/formPassword""), 0)",,,,2023-07-04 14:38:46,2023-07-04 14:38:46,0.562s,PASSED
"sendKeys(findTestObject(""LoginPage/formPassword""), ""10203040"")",,,,2023-07-04 14:38:46,2023-07-04 14:38:47,0.876s,PASSED
hideKeyboard(),,,,2023-07-04 14:38:47,2023-07-04 14:38:49,2.043s,PASSED
"tap(findTestObject(""Object Repository/LoginPage/btnLogin""), 0)",,,,2023-07-04 14:38:49,2023-07-04 14:38:50,0.659s,PASSED
"verifyElementExist(findTestObject(""Object Repository/LoginPage/elementWrongCredential""), 0)",,,,2023-07-04 14:38:50,2023-07-04 14:38:51,0.869s,PASSED
"verifyElementText(findTestObject(""LoginPage/elementWrongCredential""), ""Provided credentials do not match any user in this service."")",,,,2023-07-04 14:38:51,2023-07-04 14:38:51,0.318s,PASSED
closeApplication(),,,,2023-07-04 14:38:51,2023-07-04 14:38:52,0.779s,PASSED
,,,,,,,
Test Cases/Mobile/Login locked out user,,,,2023-07-04 14:38:52,2023-07-04 14:39:26,33.685s,PASSED
"startApplication(""D:\GALANG\Android-MyDemoAppRN.1.2.0.build-231.apk"", true)",,,,2023-07-04 14:38:52,2023-07-04 14:39:12,20.222s,PASSED
"tap(findTestObject(""Object Repository/HomePage/btnHamburgerMenu""), 0)",,,,2023-07-04 14:39:12,2023-07-04 14:39:13,1.027s,PASSED
"tap(findTestObject(""Object Repository/HomePage/btnMenuLogin""), 0)",,,,2023-07-04 14:39:13,2023-07-04 14:39:16,2.198s,PASSED
"tap(findTestObject(""Object Repository/LoginPage/formUsername""), 0)",,,,2023-07-04 14:39:16,2023-07-04 14:39:18,1.979s,PASSED
"sendKeys(findTestObject(""LoginPage/formUsername""), ""alice@example.com"")",,,,2023-07-04 14:39:18,2023-07-04 14:39:19,0.994s,PASSED
hideKeyboard(),,,,2023-07-04 14:39:19,2023-07-04 14:39:19,0.794s,PASSED
"tap(findTestObject(""Object Repository/LoginPage/formPassword""), 0)",,,,2023-07-04 14:39:19,2023-07-04 14:39:20,0.634s,PASSED
"sendKeys(findTestObject(""LoginPage/formPassword""), ""10203040"")",,,,2023-07-04 14:39:20,2023-07-04 14:39:21,0.897s,PASSED
hideKeyboard(),,,,2023-07-04 14:39:21,2023-07-04 14:39:23,1.985s,PASSED
"tap(findTestObject(""Object Repository/LoginPage/btnLogin""), 0)",,,,2023-07-04 14:39:23,2023-07-04 14:39:24,0.684s,PASSED
"verifyElementExist(findTestObject(""LoginPage/elementLockedOut""), 0)",,,,2023-07-04 14:39:24,2023-07-04 14:39:25,0.846s,PASSED
"verifyElementText(findTestObject(""LoginPage/elementLockedOut""), ""Sorry, this user has been locked out."")",,,,2023-07-04 14:39:25,2023-07-04 14:39:25,0.330s,PASSED
closeApplication(),,,,2023-07-04 14:39:25,2023-07-04 14:39:26,0.749s,PASSED
,,,,,,,
Test Cases/Mobile/Login valid credential,,,,2023-07-04 14:39:26,2023-07-04 14:40:03,37.317s,PASSED
"startApplication(""D:\GALANG\Android-MyDemoAppRN.1.2.0.build-231.apk"", true)",,,,2023-07-04 14:39:26,2023-07-04 14:39:46,19.824s,PASSED
"tap(findTestObject(""Object Repository/HomePage/btnHamburgerMenu""), 0)",,,,2023-07-04 14:39:46,2023-07-04 14:39:47,0.998s,PASSED
"tap(findTestObject(""Object Repository/HomePage/btnMenuLogin""), 0)",,,,2023-07-04 14:39:47,2023-07-04 14:39:49,2.225s,PASSED
"tap(findTestObject(""Object Repository/LoginPage/formUsername""), 0)",,,,2023-07-04 14:39:49,2023-07-04 14:39:51,1.748s,PASSED
"sendKeys(findTestObject(""LoginPage/formUsername""), ""bob@example.com"")",,,,2023-07-04 14:39:51,2023-07-04 14:39:52,1.162s,PASSED
hideKeyboard(),,,,2023-07-04 14:39:52,2023-07-04 14:39:53,0.778s,PASSED
"tap(findTestObject(""Object Repository/LoginPage/formPassword""), 0)",,,,2023-07-04 14:39:53,2023-07-04 14:39:53,0.634s,PASSED
"sendKeys(findTestObject(""LoginPage/formPassword""), ""10203040"")",,,,2023-07-04 14:39:53,2023-07-04 14:39:54,0.889s,PASSED
hideKeyboard(),,,,2023-07-04 14:39:54,2023-07-04 14:39:56,2.008s,PASSED
"tap(findTestObject(""Object Repository/LoginPage/btnLogin""), 0)",,,,2023-07-04 14:39:56,2023-07-04 14:39:57,0.822s,PASSED
"tap(findTestObject(""Object Repository/HomePage/btnHamburgerMenu""), 0)",,,,2023-07-04 14:39:57,2023-07-04 14:39:57,0.278s,PASSED
"tap(findTestObject(""Object Repository/HomePage/btnMenuLogin""), 0)",,,,2023-07-04 14:39:57,2023-07-04 14:40:00,3.130s,PASSED
"verifyElementExist(findTestObject(""Object Repository/HomePage/btnGoShopping""), 0)",,,,2023-07-04 14:40:00,2023-07-04 14:40:02,1.671s,PASSED
closeApplication(),,,,2023-07-04 14:40:02,2023-07-04 14:40:03,0.811s,PASSED
